[
    {
        "titolo": "Corso Water Tone",
        "descrizione": "Un allenamento che coniuga acquagym e divertimento.",
        "codice": "001",
        "dataora": "2022-06-01T09:00:00"
    },
    {
        "titolo": "Corso Yoga",
        "descrizione": "Il miglior corso yoga piú adatto alle tue esigenze",
        "codice": "002",
        "dataora": "2022-06-02T09:00:00"
    },
    {
        "titolo": "Corso Running",
        "descrizione": "Corri libero, all’aria aperta.",
        "codice": "003",
        "dataora": "2022-06-07T04:00:00"
    }
]